[
{"slide":0,"word_id":7,"subtitle_id":1},
{"slide":0,"word_id":12,"subtitle_id":2},
{"slide":0,"word_id":16,"subtitle_id":3},
{"slide":0,"word_id":19,"subtitle_id":6},
{"slide":0,"word_id":24,"subtitle_id":6},
{"slide":0,"word_id":24,"subtitle_id":-1},
{"slide":0,"word_id":24,"subtitle_id":3},
{"slide":1,"word_id":41,"subtitle_id":78},
{"slide":1,"word_id":43,"subtitle_id":83},
{"slide":1,"word_id":46,"subtitle_id":87},
{"slide":2,"word_id":61,"subtitle_id":166},
{"slide":2,"word_id":68,"subtitle_id":166},
{"slide":2,"word_id":72,"subtitle_id":166},
{"slide":2,"word_id":55,"subtitle_id":164},
{"slide":2,"word_id":61,"subtitle_id":164},
{"slide":2,"word_id":68,"subtitle_id":164},
{"slide":2,"word_id":72,"subtitle_id":164},
{"slide":2,"word_id":73,"subtitle_id":166},
{"slide":2,"word_id":80,"subtitle_id":166},
{"slide":2,"word_id":83,"subtitle_id":167},
{"slide":2,"word_id":88,"subtitle_id":167},
{"slide":2,"word_id":91,"subtitle_id":168},
{"slide":2,"word_id":97,"subtitle_id":168}
]
